C:\Workspace Eclipse\management-school\ejb\src\main\java\management_schoolearwebejb\management_schoolApplication\entities\Classroom.java
C:\Workspace Eclipse\management-school\ejb\src\main\java\management_schoolearwebejb\management_schoolApplication\entities\Student.java
C:\Workspace Eclipse\management-school\ejb\src\main\java\management_schoolearwebejb\management_schoolApplication\services\ClassroomService.java
C:\Workspace Eclipse\management-school\ejb\src\main\java\management_schoolearwebejb\management_schoolApplication\services\StudentService.java
